{
	"swagger": "2.0",
	"info": {
		"description": "Your Description",
		"version": "1.x",
		"title": "Your Title"
	},
	"host": "localhost:8080",
	"basePath": "/t2a",
	"tags": [
		{
			"name": "sem-controller",
			"description": "Sem Controller"
		},
		{
			"name": "web-mvc-links-handler",
			"description": "Web Mvc Links Handler"
		},
		{
			"name": "operation-handler",
			"description": "Operation Handler"
		},
		{
			"name": "basic-error-controller",
			"description": "Basic Error Controller"
		}
	],
	"paths": {
		"/actuator": {
			"get": {
				"tags": [
					"web-mvc-links-handler"
				],
				"summary": "links",
				"operationId": "linksUsingGET",
				"consumes": [
					"application/json"
				],
				"produces": [
					"application/vnd.spring-boot.actuator.v3+json",
					"application/json",
					"application/vnd.spring-boot.actuator.v2+json"
				],
				"responses": {
					"200": {
						"description": "OK",
						"schema": {
							"type": "object",
							"additionalProperties": {
								"type": "object",
								"additionalProperties": {
									"$ref": "#/definitions/Link"
								}
							}
						}
					},
					"401": {
						"description": "Unauthorized"
					},
					"403": {
						"description": "Forbidden"
					},
					"404": {
						"description": "Not Found"
					}
				}
			}
		},
		"/actuator/beans": {
			"get": {
				"tags": [
					"operation-handler"
				],
				"summary": "handle",
				"operationId": "handleUsingGET",
				"consumes": [
					"application/json"
				],
				"produces": [
					"application/vnd.spring-boot.actuator.v3+json",
					"application/json",
					"application/vnd.spring-boot.actuator.v2+json"
				],
				"parameters": [
					{
						"in": "body",
						"name": "body",
						"description": "body",
						"required": false,
						"schema": {
							"type": "object",
							"additionalProperties": {
								"type": "string"
							}
						}
					}
				],
				"responses": {
					"200": {
						"description": "OK",
						"schema": {
							"type": "object"
						}
					},
					"401": {
						"description": "Unauthorized"
					},
					"403": {
						"description": "Forbidden"
					},
					"404": {
						"description": "Not Found"
					}
				}
			}
		},
		"/actuator/caches": {
			"get": {
				"tags": [
					"operation-handler"
				],
				"summary": "handle",
				"operationId": "handleUsingGET_2",
				"consumes": [
					"application/json"
				],
				"produces": [
					"application/vnd.spring-boot.actuator.v3+json",
					"application/json",
					"application/vnd.spring-boot.actuator.v2+json"
				],
				"parameters": [
					{
						"in": "body",
						"name": "body",
						"description": "body",
						"required": false,
						"schema": {
							"type": "object",
							"additionalProperties": {
								"type": "string"
							}
						}
					}
				],
				"responses": {
					"200": {
						"description": "OK",
						"schema": {
							"type": "object"
						}
					},
					"401": {
						"description": "Unauthorized"
					},
					"403": {
						"description": "Forbidden"
					},
					"404": {
						"description": "Not Found"
					}
				}
			},
			"delete": {
				"tags": [
					"operation-handler"
				],
				"summary": "handle",
				"operationId": "handleUsingDELETE_1",
				"consumes": [
					"application/json"
				],
				"produces": [
					"*/*"
				],
				"parameters": [
					{
						"in": "body",
						"name": "body",
						"description": "body",
						"required": false,
						"schema": {
							"type": "object",
							"additionalProperties": {
								"type": "string"
							}
						}
					}
				],
				"responses": {
					"200": {
						"description": "OK",
						"schema": {
							"type": "object"
						}
					},
					"401": {
						"description": "Unauthorized"
					},
					"204": {
						"description": "No Content"
					},
					"403": {
						"description": "Forbidden"
					}
				}
			}
		},
		"/actuator/caches/{cache}": {
			"get": {
				"tags": [
					"operation-handler"
				],
				"summary": "handle",
				"operationId": "handleUsingGET_1",
				"consumes": [
					"application/json"
				],
				"produces": [
					"application/vnd.spring-boot.actuator.v3+json",
					"application/json",
					"application/vnd.spring-boot.actuator.v2+json"
				],
				"parameters": [
					{
						"in": "body",
						"name": "body",
						"description": "body",
						"required": false,
						"schema": {
							"type": "object",
							"additionalProperties": {
								"type": "string"
							}
						}
					}
				],
				"responses": {
					"200": {
						"description": "OK",
						"schema": {
							"type": "object"
						}
					},
					"401": {
						"description": "Unauthorized"
					},
					"403": {
						"description": "Forbidden"
					},
					"404": {
						"description": "Not Found"
					}
				}
			},
			"delete": {
				"tags": [
					"operation-handler"
				],
				"summary": "handle",
				"operationId": "handleUsingDELETE",
				"consumes": [
					"application/json"
				],
				"produces": [
					"application/vnd.spring-boot.actuator.v3+json",
					"application/json",
					"application/vnd.spring-boot.actuator.v2+json"
				],
				"parameters": [
					{
						"in": "body",
						"name": "body",
						"description": "body",
						"required": false,
						"schema": {
							"type": "object",
							"additionalProperties": {
								"type": "string"
							}
						}
					}
				],
				"responses": {
					"200": {
						"description": "OK",
						"schema": {
							"type": "object"
						}
					},
					"401": {
						"description": "Unauthorized"
					},
					"204": {
						"description": "No Content"
					},
					"403": {
						"description": "Forbidden"
					}
				}
			}
		},
		"/actuator/conditions": {
			"get": {
				"tags": [
					"operation-handler"
				],
				"summary": "handle",
				"operationId": "handleUsingGET_3",
				"consumes": [
					"application/json"
				],
				"produces": [
					"application/vnd.spring-boot.actuator.v3+json",
					"application/json",
					"application/vnd.spring-boot.actuator.v2+json"
				],
				"parameters": [
					{
						"in": "body",
						"name": "body",
						"description": "body",
						"required": false,
						"schema": {
							"type": "object",
							"additionalProperties": {
								"type": "string"
							}
						}
					}
				],
				"responses": {
					"200": {
						"description": "OK",
						"schema": {
							"type": "object"
						}
					},
					"401": {
						"description": "Unauthorized"
					},
					"403": {
						"description": "Forbidden"
					},
					"404": {
						"description": "Not Found"
					}
				}
			}
		},
		"/actuator/configprops": {
			"get": {
				"tags": [
					"operation-handler"
				],
				"summary": "handle",
				"operationId": "handleUsingGET_4",
				"consumes": [
					"application/json"
				],
				"produces": [
					"application/vnd.spring-boot.actuator.v3+json",
					"application/json",
					"application/vnd.spring-boot.actuator.v2+json"
				],
				"parameters": [
					{
						"in": "body",
						"name": "body",
						"description": "body",
						"required": false,
						"schema": {
							"type": "object",
							"additionalProperties": {
								"type": "string"
							}
						}
					}
				],
				"responses": {
					"200": {
						"description": "OK",
						"schema": {
							"type": "object"
						}
					},
					"401": {
						"description": "Unauthorized"
					},
					"403": {
						"description": "Forbidden"
					},
					"404": {
						"description": "Not Found"
					}
				}
			}
		},
		"/actuator/env": {
			"get": {
				"tags": [
					"operation-handler"
				],
				"summary": "handle",
				"operationId": "handleUsingGET_6",
				"consumes": [
					"application/json"
				],
				"produces": [
					"application/vnd.spring-boot.actuator.v3+json",
					"application/json",
					"application/vnd.spring-boot.actuator.v2+json"
				],
				"parameters": [
					{
						"in": "body",
						"name": "body",
						"description": "body",
						"required": false,
						"schema": {
							"type": "object",
							"additionalProperties": {
								"type": "string"
							}
						}
					}
				],
				"responses": {
					"200": {
						"description": "OK",
						"schema": {
							"type": "object"
						}
					},
					"401": {
						"description": "Unauthorized"
					},
					"403": {
						"description": "Forbidden"
					},
					"404": {
						"description": "Not Found"
					}
				}
			}
		},
		"/actuator/env/{toMatch}": {
			"get": {
				"tags": [
					"operation-handler"
				],
				"summary": "handle",
				"operationId": "handleUsingGET_5",
				"consumes": [
					"application/json"
				],
				"produces": [
					"application/vnd.spring-boot.actuator.v3+json",
					"application/json",
					"application/vnd.spring-boot.actuator.v2+json"
				],
				"parameters": [
					{
						"in": "body",
						"name": "body",
						"description": "body",
						"required": false,
						"schema": {
							"type": "object",
							"additionalProperties": {
								"type": "string"
							}
						}
					}
				],
				"responses": {
					"200": {
						"description": "OK",
						"schema": {
							"type": "object"
						}
					},
					"401": {
						"description": "Unauthorized"
					},
					"403": {
						"description": "Forbidden"
					},
					"404": {
						"description": "Not Found"
					}
				}
			}
		},
		"/actuator/health": {
			"get": {
				"tags": [
					"operation-handler"
				],
				"summary": "handle",
				"operationId": "handleUsingGET_8",
				"consumes": [
					"application/json"
				],
				"produces": [
					"application/vnd.spring-boot.actuator.v3+json",
					"application/json",
					"application/vnd.spring-boot.actuator.v2+json"
				],
				"parameters": [
					{
						"in": "body",
						"name": "body",
						"description": "body",
						"required": false,
						"schema": {
							"type": "object",
							"additionalProperties": {
								"type": "string"
							}
						}
					}
				],
				"responses": {
					"200": {
						"description": "OK",
						"schema": {
							"type": "object"
						}
					},
					"401": {
						"description": "Unauthorized"
					},
					"403": {
						"description": "Forbidden"
					},
					"404": {
						"description": "Not Found"
					}
				}
			}
		},
		"/actuator/health/**": {
			"get": {
				"tags": [
					"operation-handler"
				],
				"summary": "handle",
				"operationId": "handleUsingGET_7",
				"consumes": [
					"application/json"
				],
				"produces": [
					"application/vnd.spring-boot.actuator.v3+json",
					"application/json",
					"application/vnd.spring-boot.actuator.v2+json"
				],
				"parameters": [
					{
						"in": "body",
						"name": "body",
						"description": "body",
						"required": false,
						"schema": {
							"type": "object",
							"additionalProperties": {
								"type": "string"
							}
						}
					}
				],
				"responses": {
					"200": {
						"description": "OK",
						"schema": {
							"type": "object"
						}
					},
					"401": {
						"description": "Unauthorized"
					},
					"403": {
						"description": "Forbidden"
					},
					"404": {
						"description": "Not Found"
					}
				}
			}
		},
		"/actuator/heapdump": {
			"get": {
				"tags": [
					"operation-handler"
				],
				"summary": "handle",
				"operationId": "handleUsingGET_9",
				"consumes": [
					"application/json"
				],
				"produces": [
					"application/octet-stream"
				],
				"parameters": [
					{
						"in": "body",
						"name": "body",
						"description": "body",
						"required": false,
						"schema": {
							"type": "object",
							"additionalProperties": {
								"type": "string"
							}
						}
					}
				],
				"responses": {
					"200": {
						"description": "OK",
						"schema": {
							"type": "object"
						}
					},
					"401": {
						"description": "Unauthorized"
					},
					"403": {
						"description": "Forbidden"
					},
					"404": {
						"description": "Not Found"
					}
				}
			}
		},
		"/actuator/info": {
			"get": {
				"tags": [
					"operation-handler"
				],
				"summary": "handle",
				"operationId": "handleUsingGET_10",
				"consumes": [
					"application/json"
				],
				"produces": [
					"application/vnd.spring-boot.actuator.v3+json",
					"application/json",
					"application/vnd.spring-boot.actuator.v2+json"
				],
				"parameters": [
					{
						"in": "body",
						"name": "body",
						"description": "body",
						"required": false,
						"schema": {
							"type": "object",
							"additionalProperties": {
								"type": "string"
							}
						}
					}
				],
				"responses": {
					"200": {
						"description": "OK",
						"schema": {
							"type": "object"
						}
					},
					"401": {
						"description": "Unauthorized"
					},
					"403": {
						"description": "Forbidden"
					},
					"404": {
						"description": "Not Found"
					}
				}
			}
		},
		"/actuator/loggers": {
			"get": {
				"tags": [
					"operation-handler"
				],
				"summary": "handle",
				"operationId": "handleUsingGET_12",
				"consumes": [
					"application/json"
				],
				"produces": [
					"application/vnd.spring-boot.actuator.v3+json",
					"application/json",
					"application/vnd.spring-boot.actuator.v2+json"
				],
				"parameters": [
					{
						"in": "body",
						"name": "body",
						"description": "body",
						"required": false,
						"schema": {
							"type": "object",
							"additionalProperties": {
								"type": "string"
							}
						}
					}
				],
				"responses": {
					"200": {
						"description": "OK",
						"schema": {
							"type": "object"
						}
					},
					"401": {
						"description": "Unauthorized"
					},
					"403": {
						"description": "Forbidden"
					},
					"404": {
						"description": "Not Found"
					}
				}
			}
		},
		"/actuator/loggers/{name}": {
			"get": {
				"tags": [
					"operation-handler"
				],
				"summary": "handle",
				"operationId": "handleUsingGET_11",
				"consumes": [
					"application/json"
				],
				"produces": [
					"application/vnd.spring-boot.actuator.v3+json",
					"application/json",
					"application/vnd.spring-boot.actuator.v2+json"
				],
				"parameters": [
					{
						"in": "body",
						"name": "body",
						"description": "body",
						"required": false,
						"schema": {
							"type": "object",
							"additionalProperties": {
								"type": "string"
							}
						}
					}
				],
				"responses": {
					"200": {
						"description": "OK",
						"schema": {
							"type": "object"
						}
					},
					"401": {
						"description": "Unauthorized"
					},
					"403": {
						"description": "Forbidden"
					},
					"404": {
						"description": "Not Found"
					}
				}
			},
			"post": {
				"tags": [
					"operation-handler"
				],
				"summary": "handle",
				"operationId": "handleUsingPOST",
				"consumes": [
					"application/vnd.spring-boot.actuator.v3+json",
					"application/json",
					"application/vnd.spring-boot.actuator.v2+json"
				],
				"produces": [
					"*/*"
				],
				"parameters": [
					{
						"in": "body",
						"name": "body",
						"description": "body",
						"required": false,
						"schema": {
							"type": "object",
							"additionalProperties": {
								"type": "string"
							}
						}
					}
				],
				"responses": {
					"200": {
						"description": "OK",
						"schema": {
							"type": "object"
						}
					},
					"201": {
						"description": "Created"
					},
					"401": {
						"description": "Unauthorized"
					},
					"403": {
						"description": "Forbidden"
					},
					"404": {
						"description": "Not Found"
					}
				}
			}
		},
		"/actuator/mappings": {
			"get": {
				"tags": [
					"operation-handler"
				],
				"summary": "handle",
				"operationId": "handleUsingGET_13",
				"consumes": [
					"application/json"
				],
				"produces": [
					"application/vnd.spring-boot.actuator.v3+json",
					"application/json",
					"application/vnd.spring-boot.actuator.v2+json"
				],
				"parameters": [
					{
						"in": "body",
						"name": "body",
						"description": "body",
						"required": false,
						"schema": {
							"type": "object",
							"additionalProperties": {
								"type": "string"
							}
						}
					}
				],
				"responses": {
					"200": {
						"description": "OK",
						"schema": {
							"type": "object"
						}
					},
					"401": {
						"description": "Unauthorized"
					},
					"403": {
						"description": "Forbidden"
					},
					"404": {
						"description": "Not Found"
					}
				}
			}
		},
		"/actuator/metrics": {
			"get": {
				"tags": [
					"operation-handler"
				],
				"summary": "handle",
				"operationId": "handleUsingGET_15",
				"consumes": [
					"application/json"
				],
				"produces": [
					"application/vnd.spring-boot.actuator.v3+json",
					"application/json",
					"application/vnd.spring-boot.actuator.v2+json"
				],
				"parameters": [
					{
						"in": "body",
						"name": "body",
						"description": "body",
						"required": false,
						"schema": {
							"type": "object",
							"additionalProperties": {
								"type": "string"
							}
						}
					}
				],
				"responses": {
					"200": {
						"description": "OK",
						"schema": {
							"type": "object"
						}
					},
					"401": {
						"description": "Unauthorized"
					},
					"403": {
						"description": "Forbidden"
					},
					"404": {
						"description": "Not Found"
					}
				}
			}
		},
		"/actuator/metrics/{requiredMetricName}": {
			"get": {
				"tags": [
					"operation-handler"
				],
				"summary": "handle",
				"operationId": "handleUsingGET_14",
				"consumes": [
					"application/json"
				],
				"produces": [
					"application/vnd.spring-boot.actuator.v3+json",
					"application/json",
					"application/vnd.spring-boot.actuator.v2+json"
				],
				"parameters": [
					{
						"in": "body",
						"name": "body",
						"description": "body",
						"required": false,
						"schema": {
							"type": "object",
							"additionalProperties": {
								"type": "string"
							}
						}
					}
				],
				"responses": {
					"200": {
						"description": "OK",
						"schema": {
							"type": "object"
						}
					},
					"401": {
						"description": "Unauthorized"
					},
					"403": {
						"description": "Forbidden"
					},
					"404": {
						"description": "Not Found"
					}
				}
			}
		},
		"/actuator/scheduledtasks": {
			"get": {
				"tags": [
					"operation-handler"
				],
				"summary": "handle",
				"operationId": "handleUsingGET_16",
				"consumes": [
					"application/json"
				],
				"produces": [
					"application/vnd.spring-boot.actuator.v3+json",
					"application/json",
					"application/vnd.spring-boot.actuator.v2+json"
				],
				"parameters": [
					{
						"in": "body",
						"name": "body",
						"description": "body",
						"required": false,
						"schema": {
							"type": "object",
							"additionalProperties": {
								"type": "string"
							}
						}
					}
				],
				"responses": {
					"200": {
						"description": "OK",
						"schema": {
							"type": "object"
						}
					},
					"401": {
						"description": "Unauthorized"
					},
					"403": {
						"description": "Forbidden"
					},
					"404": {
						"description": "Not Found"
					}
				}
			}
		},
		"/actuator/threaddump": {
			"get": {
				"tags": [
					"operation-handler"
				],
				"summary": "handle",
				"operationId": "handleUsingGET_18",
				"consumes": [
					"application/json"
				],
				"produces": [
					"application/vnd.spring-boot.actuator.v3+json",
					"application/json",
					"application/vnd.spring-boot.actuator.v2+json"
				],
				"parameters": [
					{
						"in": "body",
						"name": "body",
						"description": "body",
						"required": false,
						"schema": {
							"type": "object",
							"additionalProperties": {
								"type": "string"
							}
						}
					}
				],
				"responses": {
					"200": {
						"description": "OK",
						"schema": {
							"type": "object"
						}
					},
					"401": {
						"description": "Unauthorized"
					},
					"403": {
						"description": "Forbidden"
					},
					"404": {
						"description": "Not Found"
					}
				}
			}
		},
		"/error": {
			"get": {
				"tags": [
					"basic-error-controller"
				],
				"summary": "errorHtml",
				"operationId": "errorHtmlUsingGET",
				"consumes": [
					"application/json"
				],
				"produces": [
					"text/html"
				],
				"responses": {
					"200": {
						"description": "OK",
						"schema": {
							"$ref": "#/definitions/ModelAndView"
						}
					},
					"401": {
						"description": "Unauthorized"
					},
					"403": {
						"description": "Forbidden"
					},
					"404": {
						"description": "Not Found"
					}
				}
			},
			"head": {
				"tags": [
					"basic-error-controller"
				],
				"summary": "errorHtml",
				"operationId": "errorHtmlUsingHEAD",
				"consumes": [
					"application/json"
				],
				"produces": [
					"text/html"
				],
				"responses": {
					"200": {
						"description": "OK",
						"schema": {
							"$ref": "#/definitions/ModelAndView"
						}
					},
					"401": {
						"description": "Unauthorized"
					},
					"204": {
						"description": "No Content"
					},
					"403": {
						"description": "Forbidden"
					}
				}
			},
			"post": {
				"tags": [
					"basic-error-controller"
				],
				"summary": "errorHtml",
				"operationId": "errorHtmlUsingPOST",
				"consumes": [
					"application/json"
				],
				"produces": [
					"text/html"
				],
				"responses": {
					"200": {
						"description": "OK",
						"schema": {
							"$ref": "#/definitions/ModelAndView"
						}
					},
					"201": {
						"description": "Created"
					},
					"401": {
						"description": "Unauthorized"
					},
					"403": {
						"description": "Forbidden"
					},
					"404": {
						"description": "Not Found"
					}
				}
			},
			"put": {
				"tags": [
					"basic-error-controller"
				],
				"summary": "errorHtml",
				"operationId": "errorHtmlUsingPUT",
				"consumes": [
					"application/json"
				],
				"produces": [
					"text/html"
				],
				"responses": {
					"200": {
						"description": "OK",
						"schema": {
							"$ref": "#/definitions/ModelAndView"
						}
					},
					"201": {
						"description": "Created"
					},
					"401": {
						"description": "Unauthorized"
					},
					"403": {
						"description": "Forbidden"
					},
					"404": {
						"description": "Not Found"
					}
				}
			},
			"delete": {
				"tags": [
					"basic-error-controller"
				],
				"summary": "errorHtml",
				"operationId": "errorHtmlUsingDELETE",
				"consumes": [
					"application/json"
				],
				"produces": [
					"text/html"
				],
				"responses": {
					"200": {
						"description": "OK",
						"schema": {
							"$ref": "#/definitions/ModelAndView"
						}
					},
					"401": {
						"description": "Unauthorized"
					},
					"204": {
						"description": "No Content"
					},
					"403": {
						"description": "Forbidden"
					}
				}
			},
			"options": {
				"tags": [
					"basic-error-controller"
				],
				"summary": "errorHtml",
				"operationId": "errorHtmlUsingOPTIONS",
				"consumes": [
					"application/json"
				],
				"produces": [
					"text/html"
				],
				"responses": {
					"200": {
						"description": "OK",
						"schema": {
							"$ref": "#/definitions/ModelAndView"
						}
					},
					"401": {
						"description": "Unauthorized"
					},
					"204": {
						"description": "No Content"
					},
					"403": {
						"description": "Forbidden"
					}
				}
			},
			"patch": {
				"tags": [
					"basic-error-controller"
				],
				"summary": "errorHtml",
				"operationId": "errorHtmlUsingPATCH",
				"consumes": [
					"application/json"
				],
				"produces": [
					"text/html"
				],
				"responses": {
					"200": {
						"description": "OK",
						"schema": {
							"$ref": "#/definitions/ModelAndView"
						}
					},
					"401": {
						"description": "Unauthorized"
					},
					"204": {
						"description": "No Content"
					},
					"403": {
						"description": "Forbidden"
					}
				}
			}
		},
		"/semapi/team/members": {
			"get": {
				"tags": [
					"sem-controller"
				],
				"summary": "getSemTeam",
				"operationId": "getSemTeamUsingGET",
				"consumes": [
					"application/json"
				],
				"produces": [
					"*/*"
				],
				"parameters": [
					{
						"name": "title",
						"in": "query",
						"description": "title",
						"required": false,
						"type": "string"
					},
					{
						"name": "fisrtname",
						"in": "query",
						"description": "fisrtname",
						"required": false,
						"type": "string"
					},
					{
						"name": "lastname",
						"in": "query",
						"description": "lastname",
						"required": false,
						"type": "string"
					},
					{
						"name": "email",
						"in": "query",
						"description": "email",
						"required": false,
						"type": "string"
					}
				],
				"responses": {
					"200": {
						"description": "OK",
						"schema": {
							"type": "array",
							"items": {
								"$ref": "#/definitions/SemStaff"
							}
						}
					},
					"401": {
						"description": "Unauthorized"
					},
					"403": {
						"description": "Forbidden"
					},
					"404": {
						"description": "Not Found"
					}
				}
			},
			"post": {
				"tags": [
					"sem-controller"
				],
				"summary": "createSemStaff",
				"operationId": "createSemStaffUsingPOST",
				"consumes": [
					"application/json"
				],
				"produces": [
					"*/*"
				],
				"parameters": [
					{
						"in": "body",
						"name": "ds",
						"description": "ds",
						"required": true,
						"schema": {
							"$ref": "#/definitions/SemStaff"
						}
					}
				],
				"responses": {
					"200": {
						"description": "OK",
						"schema": {
							"type": "string"
						}
					},
					"201": {
						"description": "Created"
					},
					"401": {
						"description": "Unauthorized"
					},
					"403": {
						"description": "Forbidden"
					},
					"404": {
						"description": "Not Found"
					}
				}
			},
			"delete": {
				"tags": [
					"sem-controller"
				],
				"summary": "deleteAllSemStaff",
				"operationId": "deleteAllSemStaffUsingDELETE",
				"consumes": [
					"application/json"
				],
				"produces": [
					"application/json"
				],
				"responses": {
					"200": {
						"description": "OK",
						"schema": {
							"type": "string"
						}
					},
					"401": {
						"description": "Unauthorized"
					},
					"204": {
						"description": "No Content"
					},
					"403": {
						"description": "Forbidden"
					}
				}
			}
		},
		"/semapi/team/members/{id}": {
			"get": {
				"tags": [
					"sem-controller"
				],
				"summary": "getSemStaff",
				"operationId": "getSemStaffUsingGET",
				"consumes": [
					"application/json"
				],
				"produces": [
					"application/json"
				],
				"parameters": [
					{
						"name": "id",
						"in": "path",
						"description": "id",
						"required": true,
						"type": "integer",
						"format": "int32"
					}
				],
				"responses": {
					"200": {
						"description": "OK",
						"schema": {
							"$ref": "#/definitions/SemStaff"
						}
					},
					"401": {
						"description": "Unauthorized"
					},
					"403": {
						"description": "Forbidden"
					},
					"404": {
						"description": "Not Found"
					}
				}
			},
			"put": {
				"tags": [
					"sem-controller"
				],
				"summary": "updateSemStaff",
				"operationId": "updateSemStaffUsingPUT",
				"consumes": [
					"application/json"
				],
				"produces": [
					"application/json"
				],
				"parameters": [
					{
						"name": "id",
						"in": "path",
						"description": "id",
						"required": true,
						"type": "integer",
						"format": "int32"
					},
					{
						"in": "body",
						"name": "Semstaff",
						"description": "Semstaff",
						"required": true,
						"schema": {
							"$ref": "#/definitions/SemStaff"
						}
					}
				],
				"responses": {
					"200": {
						"description": "OK",
						"schema": {
							"$ref": "#/definitions/SemStaff"
						}
					},
					"201": {
						"description": "Created"
					},
					"401": {
						"description": "Unauthorized"
					},
					"403": {
						"description": "Forbidden"
					},
					"404": {
						"description": "Not Found"
					}
				}
			},
			"delete": {
				"tags": [
					"sem-controller"
				],
				"summary": "deleteSemStaff",
				"operationId": "deleteSemStaffUsingDELETE",
				"consumes": [
					"application/json"
				],
				"produces": [
					"application/json"
				],
				"parameters": [
					{
						"name": "id",
						"in": "path",
						"description": "id",
						"required": true,
						"type": "integer",
						"format": "int32"
					}
				],
				"responses": {
					"200": {
						"description": "OK",
						"schema": {
							"type": "string"
						}
					},
					"401": {
						"description": "Unauthorized"
					},
					"204": {
						"description": "No Content"
					},
					"403": {
						"description": "Forbidden"
					}
				}
			}
		}
	},
	"definitions": {
		"ModelAndView": {
			"type": "object",
			"properties": {
				"empty": {
					"type": "boolean"
				},
				"model": {
					"type": "object"
				},
				"modelMap": {
					"type": "object",
					"additionalProperties": {
						"type": "object"
					}
				},
				"reference": {
					"type": "boolean"
				},
				"status": {
					"type": "string",
					"enum": [
						"100 CONTINUE",
						"101 SWITCHING_PROTOCOLS",
						"102 PROCESSING",
						"103 CHECKPOINT",
						"200 OK",
						"201 CREATED",
						"202 ACCEPTED",
						"203 NON_AUTHORITATIVE_INFORMATION",
						"204 NO_CONTENT",
						"205 RESET_CONTENT",
						"206 PARTIAL_CONTENT",
						"207 MULTI_STATUS",
						"208 ALREADY_REPORTED",
						"226 IM_USED",
						"300 MULTIPLE_CHOICES",
						"301 MOVED_PERMANENTLY",
						"302 FOUND",
						"302 MOVED_TEMPORARILY",
						"303 SEE_OTHER",
						"304 NOT_MODIFIED",
						"305 USE_PROXY",
						"307 TEMPORARY_REDIRECT",
						"308 PERMANENT_REDIRECT",
						"400 BAD_REQUEST",
						"401 UNAUTHORIZED",
						"402 PAYMENT_REQUIRED",
						"403 FORBIDDEN",
						"404 NOT_FOUND",
						"405 METHOD_NOT_ALLOWED",
						"406 NOT_ACCEPTABLE",
						"407 PROXY_AUTHENTICATION_REQUIRED",
						"408 REQUEST_TIMEOUT",
						"409 CONFLICT",
						"410 GONE",
						"411 LENGTH_REQUIRED",
						"412 PRECONDITION_FAILED",
						"413 PAYLOAD_TOO_LARGE",
						"413 REQUEST_ENTITY_TOO_LARGE",
						"414 URI_TOO_LONG",
						"414 REQUEST_URI_TOO_LONG",
						"415 UNSUPPORTED_MEDIA_TYPE",
						"416 REQUESTED_RANGE_NOT_SATISFIABLE",
						"417 EXPECTATION_FAILED",
						"418 I_AM_A_TEAPOT",
						"419 INSUFFICIENT_SPACE_ON_RESOURCE",
						"420 METHOD_FAILURE",
						"421 DESTINATION_LOCKED",
						"422 UNPROCESSABLE_ENTITY",
						"423 LOCKED",
						"424 FAILED_DEPENDENCY",
						"425 TOO_EARLY",
						"426 UPGRADE_REQUIRED",
						"428 PRECONDITION_REQUIRED",
						"429 TOO_MANY_REQUESTS",
						"431 REQUEST_HEADER_FIELDS_TOO_LARGE",
						"451 UNAVAILABLE_FOR_LEGAL_REASONS",
						"500 INTERNAL_SERVER_ERROR",
						"501 NOT_IMPLEMENTED",
						"502 BAD_GATEWAY",
						"503 SERVICE_UNAVAILABLE",
						"504 GATEWAY_TIMEOUT",
						"505 HTTP_VERSION_NOT_SUPPORTED",
						"506 VARIANT_ALSO_NEGOTIATES",
						"507 INSUFFICIENT_STORAGE",
						"508 LOOP_DETECTED",
						"509 BANDWIDTH_LIMIT_EXCEEDED",
						"510 NOT_EXTENDED",
						"511 NETWORK_AUTHENTICATION_REQUIRED"
					]
				},
				"view": {
					"$ref": "#/definitions/View"
				},
				"viewName": {
					"type": "string"
				}
			}
		},
		"Map«string,Link»": {
			"type": "object",
			"additionalProperties": {
				"$ref": "#/definitions/Link"
			}
		},
		"SemStaff": {
			"type": "object",
			"properties": {
				"email": {
					"type": "string"
				},
				"firstName": {
					"type": "string"
				},
				"id": {
					"type": "integer",
					"format": "int32"
				},
				"lastName": {
					"type": "string"
				},
				"title": {
					"type": "string"
				}
			}
		},
		"View": {
			"type": "object",
			"properties": {
				"contentType": {
					"type": "string"
				}
			}
		},
		"Link": {
			"type": "object",
			"properties": {
				"href": {
					"type": "string"
				},
				"templated": {
					"type": "boolean"
				}
			}
		}
	}
}